Mer Hasdf,sdfsdfdsdsd,sdf@asd.asd,53de3ec762d4f473d4807fa9f26079e5
Mery Harutyunyan,mery-harutyunyan,harutyunyan.mery@gmail.com,df5499b0456a535917db74e991160860
Mer Ha,asdasdsadas,asds@adas.asd,3e43ef1c6fdec6b363e453e20269f2f4
Mws Hsad,asssssdasdasd,asda@asd.asd,1c653f788865cb85e2f9c49a06b451a4
Marin Har,aaaaaaaaaaaaaaaaaaa,marin@gmail.com,df5499b0456a535917db74e991160860
Mery Harutyunyan,merymerymery,mery@gmail.com,df5499b0456a535917db74e991160860
Areg Nazaryan,aregnazaryan,areg@gmail.com,917888cc5f36b0e07241905afffbe755
Mera Kasd,asdsadasdasd,asd@adas.asd,df5499b0456a535917db74e991160860
